<?xml version="1.0" encoding="utf-8"?>
<!-- Generator: Adobe Illustrator 16.0.0, SVG Export Plug-In . SVG Version: 6.00 Build 0)  -->
<!DOCTYPE svg PUBLIC "-//W3C//DTD SVG 1.1//EN" "http://www.w3.org/Graphics/SVG/1.1/DTD/svg11.dtd">
<svg version="1.1" id="Layer_1" xmlns="http://www.w3.org/2000/svg" xmlns:xlink="http://www.w3.org/1999/xlink" x="0px" y="0px"
	 width="14.833px" height="14.792px" viewBox="0 0 14.833 14.792" enable-background="new 0 0 14.833 14.792" xml:space="preserve">
<path fill="none" stroke="#EC008C" stroke-width="0.5" stroke-dasharray="1.856,1.856" d="M10.168,13.94
	c2.016-0.836,3.562-2.576,4.133-4.714"/>
<path fill="none" stroke="#EC008C" stroke-width="0.5" stroke-dasharray="1.856,1.856" d="M14.004,4.679
	c-0.836-2.016-2.576-3.563-4.715-4.134"/>
<path fill="none" stroke="#EC008C" stroke-width="0.5" stroke-dasharray="1.856,1.856" d="M4.743,0.843
	C2.727,1.679,1.18,3.419,0.608,5.557"/>
<path fill="none" stroke="#EC008C" stroke-width="0.5" stroke-dasharray="1.856,1.856" d="M0.906,10.104
	c0.836,2.016,2.576,3.562,4.714,4.134"/>
<path fill="none" stroke="#EC008C" stroke-width="0.5" d="M6.53,14.419c0.303,0.039,0.612,0.059,0.925,0.059
	c0.314,0,0.624-0.02,0.924-0.059 M0.429,6.467c-0.04,0.302-0.06,0.611-0.06,0.924s0.02,0.623,0.06,0.926 M8.379,0.365
	c-0.301-0.039-0.61-0.06-0.924-0.06c-0.313,0-0.622,0.021-0.925,0.06 M14.483,8.317c0.039-0.303,0.059-0.612,0.059-0.926
	s-0.02-0.623-0.059-0.924"/>
</svg>
