<?xml version="1.0" encoding="utf-8"?>
<!-- Generator: Adobe Illustrator 16.0.0, SVG Export Plug-In . SVG Version: 6.00 Build 0)  -->
<!DOCTYPE svg PUBLIC "-//W3C//DTD SVG 1.1//EN" "http://www.w3.org/Graphics/SVG/1.1/DTD/svg11.dtd">
<svg version="1.1" id="Layer_1" xmlns="http://www.w3.org/2000/svg" xmlns:xlink="http://www.w3.org/1999/xlink" x="0px" y="0px"
	 width="605.667px" height="122.166px" viewBox="0 0 605.667 122.166" enable-background="new 0 0 605.667 122.166"
	 xml:space="preserve">
<g>
	<path fill="#231F20" d="M44.517,72.777l1.026,39.398H40.9l-0.809-33.191l-11.28,29.845h-4.317l-10.47-29.521l-0.81,32.867H8.573
		l1.079-39.398h6.422l10.632,30.169L38.04,72.777H44.517z"/>
	<path fill="#231F20" d="M55.311,88.969c1.133-5.127,4.695-8.419,10.956-8.419c5.99,0,10.901,1.943,10.901,10.794v20.832h-3.075
		l-1.188-4.803c-2.268,2.429-6.153,5.559-11.389,5.559c-5.828,0-7.933-3.509-7.933-7.933c0-4.481,1.889-7.827,10.901-9.284
		l8.042-1.295v-3.076c0-5.775-2.915-7.017-6.369-7.017c-3.993,0-6.369,2.158-7.07,5.774L55.311,88.969z M72.528,104.134v-6.476
		l-7.611,1.295c-5.504,0.972-6.745,3.293-6.745,5.937c0,2.483,1.295,4.48,4.641,4.48C66.861,109.37,69.936,106.941,72.528,104.134z"
		/>
	<path fill="#231F20" d="M106.044,107.48c-2.592,2.86-6.369,5.451-10.849,5.451c-7.987,0-9.932-7.825-9.932-16.192
		c0-8.364,2.268-16.189,12.036-16.189c2.914,0,5.937,0.863,8.527,2.104V71.267l4.641-0.539v41.448h-3.075L106.044,107.48z
		 M105.828,103.972V86.324c-2.806-1.512-5.559-2.105-7.609-2.105c-6.423,0-8.312,5.236-8.312,12.521
		c0,7.18,1.835,12.414,6.801,12.414C100.269,109.153,103.075,107.318,105.828,103.972z"/>
	<path fill="#231F20" d="M119.104,96.739c0-8.364,2.483-16.189,12.9-16.189c10.361,0,12.735,7.501,12.735,15.544v1.133h-21.048
		c0.054,8.311,2.105,11.927,8.527,11.927c5.937,0,7.88-2.645,8.203-6.207l3.832,0.217c-0.539,5.181-3.292,9.769-12.035,9.769
		C122.451,112.932,119.104,107.21,119.104,96.739z M123.8,93.772h16.299c-0.323-5.397-1.943-9.445-8.15-9.445
		C126.067,84.327,124.232,88.482,123.8,93.772z"/>
	<path fill="#231F20" d="M168.324,73.156c0-1.458,0.378-3.022,2.753-3.022c2.481,0,2.86,1.564,2.86,3.022
		c0,1.401-0.379,2.967-2.86,2.967C168.702,76.123,168.324,74.558,168.324,73.156z M173.397,81.306v30.87h-4.642v-30.87H173.397z"/>
	<path fill="#231F20" d="M188.887,84.543c2.806-2.05,6.908-3.993,11.225-3.993c6.586,0,9.121,3.346,9.121,9.714v21.912h-4.642
		V90.372c0-4.264-1.511-6.045-5.397-6.045c-3.615,0-6.853,1.403-9.714,3.617v24.231h-4.642v-30.87h2.752L188.887,84.543z"/>
	<path fill="#231F20" d="M250.142,72.777l12.898,39.398h-4.695l-3.832-11.873H239.51l-3.832,11.873h-4.695l12.845-39.398H250.142z
		 M240.697,96.525h12.575l-6.261-19.538L240.697,96.525z"/>
	<path fill="#231F20" d="M296.665,72.777v26.392c0,12.468-7.447,13.763-13.925,13.763c-6.422,0-13.871-1.295-13.871-13.763V72.777
		h4.751v26.229c0,8.852,4.803,9.931,9.12,9.931c4.425,0,9.176-1.079,9.176-9.931V72.777H296.665z"/>
	<path fill="#231F20" d="M320.412,90.804c7.231,2.051,10.417,4.317,10.417,11.172c0,5.774-3.887,10.956-13.548,10.956
		c-8.42,0-11.766-4.048-12.683-10.254l3.886-0.702c0.594,4.156,3.185,7.123,8.797,7.123c7.178,0,8.797-3.399,8.797-6.961
		c0-4.21-2.32-5.667-7.016-6.963L315.5,94.15c-7.069-1.943-10.093-4.318-10.093-11.119c0-5.828,3.778-11.009,13.062-11.009
		c8.095,0,11.225,4.047,12.143,10.254l-3.886,0.702c-0.594-4.156-2.969-7.124-8.204-7.124c-6.854,0-8.365,3.399-8.365,6.962
		c0,4.209,2.051,5.721,6.53,6.962L320.412,90.804z"/>
	<path fill="#231F20" d="M334.226,72.777h25.906v3.778h-10.577v35.62h-4.75v-35.62h-10.579V72.777z"/>
	<path fill="#231F20" d="M378.158,72.777c9.878,0,12.09,6.207,12.09,11.604c0,4.208-1.403,8.959-6.8,10.793
		c1.024,0.756,1.835,1.889,2.591,3.562l5.828,13.438h-5.073l-5.451-12.791c-1.188-2.753-2.86-3.346-5.774-3.454h-4.587v16.245h-4.75
		V72.777H378.158z M377.943,92.153c5.721,0,7.555-3.886,7.555-7.771s-1.834-7.826-7.555-7.826h-6.962v15.598H377.943z"/>
	<path fill="#231F20" d="M405.523,72.777v39.398h-4.751V72.777H405.523z"/>
	<path fill="#231F20" d="M431.32,72.777l12.898,39.398h-4.695l-3.832-11.873h-15.003l-3.833,11.873h-4.694l12.845-39.398H431.32z
		 M421.875,96.525h12.575l-6.261-19.538L421.875,96.525z"/>
</g>
<polygon fill="#FFFFFF" points="529.367,61.221 529.367,93.915 605.692,50.699 605.692,16.312 "/>
<polygon fill="#841827" points="529.367,112.167 564.625,120.892 564.625,87.22 "/>
<polygon fill="#DF2326" points="605.692,22.292 529.367,67.319 529.367,45.391 605.692,0.363 "/>
<polygon fill="#DF2326" points="605.692,67.146 529.367,112.167 529.367,90.238 605.692,45.217 "/>
</svg>
